%YAML 1.1
%TAG !u! tag:unity3d.com,2011:
--- !u!128 &12800000
Font:
  m_ObjectHideFlags: 0
  m_CorrespondingSourceObject: {fileID: 0}
  m_PrefabInstance: {fileID: 0}
  m_PrefabAsset: {fileID: 0}
  m_Name: 0123456789
  serializedVersion: 5
  m_LineSpacing: 80
  m_DefaultMaterial: {fileID: 6099296388684842156}
  m_FontSize: 32
  m_Texture: {fileID: 0}
  m_AsciiStartOffset: 0
  m_Tracking: 0.7
  m_CharacterSpacing: 0
  m_CharacterPadding: 1
  m_ConvertCase: 0
  m_CharacterRects:
  - serializedVersion: 2
    index: 0
    uv:
      serializedVersion: 2
      x: 0
      y: 1
      width: 0
      height: 0
    vert:
      serializedVersion: 2
      x: 0
      y: 26
      width: 0
      height: 0
    advance: 0
    flipped: 0
  - serializedVersion: 2
    index: 48
    uv:
      serializedVersion: 2
      x: 0
      y: 0
      width: 0.08646616
      height: 1
    vert:
      serializedVersion: 2
      x: 0
      y: 0
      width: 23
      height: -28
    advance: 33
    flipped: 0
  - serializedVersion: 2
    index: 49
    uv:
      serializedVersion: 2
      x: 0.10902256
      y: 0.03571427
      width: 0.06390977
      height: 0.96428573
    vert:
      serializedVersion: 2
      x: 0
      y: -1
      width: 17
      height: -27
    advance: 27
    flipped: 0
  - serializedVersion: 2
    index: 50
    uv:
      serializedVersion: 2
      x: 0.19924812
      y: 0.03571427
      width: 0.075187966
      height: 0.96428573
    vert:
      serializedVersion: 2
      x: 0
      y: -1
      width: 20
      height: -27
    advance: 30
    flipped: 0
  - serializedVersion: 2
    index: 51
    uv:
      serializedVersion: 2
      x: 0.30075186
      y: 0
      width: 0.07518798
      height: 1
    vert:
      serializedVersion: 2
      x: 0
      y: 0
      width: 20
      height: -28
    advance: 30
    flipped: 0
  - serializedVersion: 2
    index: 52
    uv:
      serializedVersion: 2
      x: 0.39849624
      y: 0.03571427
      width: 0.08646616
      height: 0.96428573
    vert:
      serializedVersion: 2
      x: 0
      y: -1
      width: 23
      height: -27
    advance: 33
    flipped: 0
  - serializedVersion: 2
    index: 53
    uv:
      serializedVersion: 2
      x: 0.5112782
      y: 0
      width: 0.0714286
      height: 1
    vert:
      serializedVersion: 2
      x: 0
      y: 0
      width: 19
      height: -28
    advance: 29
    flipped: 0
  - serializedVersion: 2
    index: 54
    uv:
      serializedVersion: 2
      x: 0.61278194
      y: 0
      width: 0.078947365
      height: 1
    vert:
      serializedVersion: 2
      x: 0
      y: 0
      width: 21
      height: -28
    advance: 31
    flipped: 0
  - serializedVersion: 2
    index: 55
    uv:
      serializedVersion: 2
      x: 0.71428573
      y: 0.03571427
      width: 0.07518798
      height: 0.96428573
    vert:
      serializedVersion: 2
      x: 0
      y: -1
      width: 20
      height: -27
    advance: 30
    flipped: 0
  - serializedVersion: 2
    index: 56
    uv:
      serializedVersion: 2
      x: 0.81578946
      y: 0
      width: 0.078947365
      height: 1
    vert:
      serializedVersion: 2
      x: 0
      y: 0
      width: 21
      height: -28
    advance: 31
    flipped: 0
  - serializedVersion: 2
    index: 57
    uv:
      serializedVersion: 2
      x: 0.92105263
      y: 0
      width: 0.078947365
      height: 1
    vert:
      serializedVersion: 2
      x: 0
      y: 0
      width: 21
      height: -28
    advance: 31
    flipped: 0
  - serializedVersion: 2
    index: 32
    uv:
      serializedVersion: 2
      x: 0
      y: 1
      width: 0
      height: 0
    vert:
      serializedVersion: 2
      x: 0
      y: 26
      width: 0
      height: 0
    advance: 20
    flipped: 0
  - serializedVersion: 2
    index: 9
    uv:
      serializedVersion: 2
      x: 0
      y: 1
      width: 0
      height: 0
    vert:
      serializedVersion: 2
      x: 0
      y: 26
      width: 0
      height: 0
    advance: 160
    flipped: 0
  m_KerningValues: []
  m_PixelScale: 0.1
  m_FontData: 
  m_Ascent: 26
  m_Descent: -54
  m_DefaultStyle: 0
  m_FontNames: []
  m_FallbackFonts: []
  m_FontRenderingMode: 0
  m_UseLegacyBoundsCalculation: 0
  m_ShouldRoundAdvanceValue: 1
--- !u!21 &6099296388684842156
Material:
  serializedVersion: 6
  m_ObjectHideFlags: 0
  m_CorrespondingSourceObject: {fileID: 0}
  m_PrefabInstance: {fileID: 0}
  m_PrefabAsset: {fileID: 0}
  m_Name: Font Material
  m_Shader: {fileID: 10770, guid: 0000000000000000f000000000000000, type: 0}
  m_ShaderKeywords: 
  m_LightmapFlags: 4
  m_EnableInstancingVariants: 0
  m_DoubleSidedGI: 0
  m_CustomRenderQueue: -1
  stringTagMap: {}
  disabledShaderPasses: []
  m_SavedProperties:
    serializedVersion: 3
    m_TexEnvs:
    - _MainTex:
        m_Texture: {fileID: 2800000, guid: eb6b73f0453016549b76322000631cbf, type: 3}
        m_Scale: {x: 1, y: 1}
        m_Offset: {x: 0, y: 0}
    m_Floats:
    - _ColorMask: 15
    - _Stencil: 0
    - _StencilComp: 8
    - _StencilOp: 0
    - _StencilReadMask: 255
    - _StencilWriteMask: 255
    - _UseUIAlphaClip: 0
    m_Colors:
    - _Color: {r: 1, g: 1, b: 1, a: 1}
  m_BuildTextureStacks: []
