%YAML 1.1
%TAG !u! tag:unity3d.com,2011:
--- !u!114 &11400000
MonoBehaviour:
  m_ObjectHideFlags: 0
  m_CorrespondingSourceObject: {fileID: 0}
  m_PrefabInstance: {fileID: 0}
  m_PrefabAsset: {fileID: 0}
  m_GameObject: {fileID: 0}
  m_Enabled: 1
  m_EditorHideFlags: 0
  m_Script: {fileID: 11500000, guid: 65b3817a70796254a8f7a02f4701653f, type: 3}
  m_Name: Map 49
  m_EditorClassIdentifier: 
  mapPrefab: {fileID: 1046421647377745607, guid: 3090e3b6817ad08438d48ff4b24d223b,
    type: 3}
